{
  "extName": {
    "message": "MintOil",
    "description": "Extension title/name."
  },
  "extDesc": {
    "message": "Some very helpful extensions for the Intuit\u00AE Mint\u2122 web application.",
    "description": "The description of the extension seen on the store-front."
  },
  "pgTitleMonthlyBills": {
    "message": "Monthly Bills",
    "description": "The page title to the 'monthly bills' page."
  },
  "pgTitleOptions": {
    "message": "Options",
    "description": "The page title for the 'options' page."
  },
  "inHandler": {
    "message": "In webNavigation[`%s`] handler: %o",
    "description": "Notification displayed for each webNavigation event."
  },
  "inHandlerError": {
    "message": "In webNavigation[`%s`] handler: No data!",
    "description": "Notification displayed in a webNavigation event handler without data!"
  },
  "errorCommittedWithoutPending": {
    "message": "Wha?  `onCommitted` for `%s` called, though it's not pending: %o",
    "description": "Error logged when `onCommitted` is triggered on a non-pending request."
  },
  "errorCompletedWithoutPending": {
    "message": "Wha?  `onCompleted` for `%s` called, though it's not pending: %o",
    "description": "Error logged when `onCompleted` is triggered on a non-pending request."
  },
  "errorErrorOccurredWithoutPending": {
    "message": "Wha?  `onErrorOccurred` for `%s` called, though it's not pending: %o",
    "description": "Error logged when `onErrorOccurred` is triggered on a non-pending request."
  }
}